Summary stats on RAW data
…
here::here()

## [1] "/Users/sebastiansaueruser/Documents/research/Achtsamkeit_Studien/Necker/necker-cube-replication-saueretal2012"

Load data

load(file = paste0(here::here(), "/objects/rawdata_long.Rdata"))

d <- rawdata_long3

d <- d %>% 
  select(rt, type, id, mindfulness_score, mindfulness_training, everything())
d

## # A tibble: 20,139 x 58
##       rt type     id mindfulness_sco mindfulness_tra  CASE SERIAL REF  
##    <dbl> <chr> <dbl>            <dbl>            <dbl> <dbl> <lgl>  <lgl>
##  1  7050 flip      1             4.33                0   194 NA     NA   
##  2  4857 flip      1             4.33                0   194 NA     NA   
##  3   776 flip      1             4.33                0   194 NA     NA   
##  4  1185 flip      1             4.33                0   194 NA     NA   
##  5   231 flip      1             4.33                0   194 NA     NA   
##  6   221 flip      1             4.33                0   194 NA     NA   
##  7   180 flip      1             4.33                0   194 NA     NA   
##  8   203 flip      1             4.33                0   194 NA     NA   
##  9   387 flip      1             4.33                0   194 NA     NA   
## 10   195 flip      1             4.33                0   194 NA     NA   
## #  with 20,129 more rows, and 50 more variables: QUESTNNR <chr>,
## #   MODE <chr>, STARTED <dttm>, PE01_01 <dbl>, PE02 <dbl>, PE03 <dbl>,
## #   PE04 <dbl>, PE05 <dbl>, PE06 <dbl>, PE07_01 <chr>, PE08 <dbl>,
## #   PE08_06 <chr>, PE09 <dbl>, MA01_01 <dbl>, MA01_02 <dbl>,
## #   MA01_03 <dbl>, MA01_04 <dbl>, MA01_05 <dbl>, MA01_07 <dbl>,
## #   MA01_08 <dbl>, MA01_09 <dbl>, MA01_10 <dbl>, MA01_12 <dbl>,
## #   MA01_13 <dbl>, MA01_14 <dbl>, MA01_15 <dbl>, MA01_16 <dbl>,
## #   MA01_17 <dbl>, NW03_01 <chr>, NW04_01 <chr>, TIME001 <dbl>,
## #   TIME002 <dbl>, TIME003 <dbl>, TIME004 <dbl>, TIME005 <dbl>,
…
RT per person per block

Lets aggregate on the person level, and compare then the blocks

 d_sum2 <- d %>% 
  select(rt, type, id) %>%
  drop_na() %>% 
  group_by(id, type) %>% 
  summarise(rt_id_md = median(rt),
            rt_id_mean = mean(rt))

d_sum2

## # A tibble: 283 x 4
## # Groups:   id [142]
##       id type  rt_id_md rt_id_mean
##    <dbl> <chr>    <dbl>      <dbl>
##  1     1 flip      286       3353.
##  2     1 hold     8835      10047.
##  3     2 flip     1041       1200.
##  4     2 hold     5690.      6756.
##  5     3 flip     1379       1546.
##  6     3 hold     7787       7187.
##  7     4 flip     1090.      1322.
##  8     4 hold     5247       5106.
##  9     5 flip     5130      43222 
## 10     5 hold     1792       1792 
## #  with 273 more rows
…
