Cleanup data, detect suspicious cases
…
here::here()

## [1] "/Users/sebastiansaueruser/Documents/research/Achtsamkeit_Studien/Necker/necker-cube-replication-saueretal2012"

Load data

load(file = paste0(here::here(), "/objects/rawdata_long.Rdata"))
load(file = paste0(here::here(), "/raw-data/raw_data_person_level_rt_summary.Rdata"))

d <- d_person_rt_sum

d

## # A tibble: 143 x 64
##       id STARTED             rt_md_hold rt_mean_hold rt_iqr_hold rt_sd_hold
##    <dbl> <dttm>                   <dbl>        <dbl>       <dbl>      <dbl>
##  1     1 2018-12-22 12:46:41      8835        10047.       8888       8888 
##  2     2 2018-12-22 13:05:44      5690.        6756.       5293.      5293.
##  3     3 2018-12-22 13:16:03      7787         7187.       4286.      4286.
##  4     4 2018-12-22 13:23:32      5247         5106.       2955       2955 
##  5     5 2018-12-22 13:25:33      1792         1792           0          0 
##  6     6 2018-12-22 13:25:56      3119         3968.       3247       3247 
##  7     7 2018-12-22 13:26:27      3694.        5753.       6334.      6334.
##  8     8 2018-12-22 13:29:01      4342.        6872.       8506.      8506.
##  9     9 2018-12-22 13:40:01      2581         3119.       2229       2229 
## 10    10 2018-12-22 13:46:24      2814         3765.       2754       2754 
## #  with 133 more rows, and 58 more variables: rt_md_flip <dbl>,
## #   rt_mean_flip <dbl>, rt_iqr_flip <dbl>, rt_sd_flip <dbl>,
## #   mindfulness_score <dbl>, mindfulness_training <dbl>, CASE <dbl>,
## #   SERIAL <lgl>, REF <lgl>, QUESTNNR <chr>, MODE <chr>, PE01_01 <dbl>,
## #   PE02 <dbl>, PE03 <dbl>, PE04 <dbl>, PE05 <dbl>, PE06 <dbl>,
## #   PE07_01 <chr>, PE08 <dbl>, PE08_06 <chr>, PE09 <dbl>, MA01_01 <dbl>,
## #   MA01_02 <dbl>, MA01_03 <dbl>, MA01_04 <dbl>, MA01_05 <dbl>,
## #   MA01_07 <dbl>, MA01_08 <dbl>, MA01_09 <dbl>, MA01_10 <dbl>,
## #   MA01_12 <dbl>, MA01_13 <dbl>, MA01_14 <dbl>, MA01_15 <dbl>,
…
.. for mindfulness_score

Compute sd of mindfulness score (on person level)

mindfulness_score_sd <- d %>% 
  ungroup() %>% 
  select(contains("MA01"), id) %>% 
  gather(key = item, value = value, -id) %>% 
  group_by(id) %>% 
  summarise(mindfulness_sd = sd(value, na.rm = TRUE))

mindfulness_score_sd

## # A tibble: 143 x 2
##       id mindfulness_sd
##    <dbl>          <dbl>
##  1     1          1.05 
##  2     2          1.06 
##  3     3          0.915
##  4     4          1.03 
##  5     5          1    
##  6     6          1.36 
##  7     7          0.976
##  8     8          0.961
##  9     9          1.07 
## 10    10          0.828
## #  with 133 more rows

Add this variable to main l2 data frame:

d2 <- d %>% 
  full_join(mindfulness_score_sd) %>% 
  select(id, contains("rt_"), contains("mindful"), everything())

## Joining, by = "id"

d2

## # A tibble: 143 x 65
##       id rt_md_hold rt_mean_hold rt_iqr_hold rt_sd_hold rt_md_flip
##    <dbl>      <dbl>        <dbl>       <dbl>      <dbl>      <dbl>
##  1     1      8835        10047.       8888       8888        286 
##  2     2      5690.        6756.       5293.      5293.      1041 
##  3     3      7787         7187.       4286.      4286.      1379 
##  4     4      5247         5106.       2955       2955       1090.
##  5     5      1792         1792           0          0       5130 
##  6     6      3119         3968.       3247       3247       1287 
##  7     7      3694.        5753.       6334.      6334.      1635 
##  8     8      4342.        6872.       8506.      8506.      4518.
##  9     9      2581         3119.       2229       2229       1382 
## 10    10      2814         3765.       2754       2754       1280.
## #  with 133 more rows, and 59 more variables: rt_mean_flip <dbl>,
## #   rt_iqr_flip <dbl>, rt_sd_flip <dbl>, mindfulness_score <dbl>,
## #   mindfulness_training <dbl>, mindfulness_sd <dbl>, STARTED <dttm>,
## #   CASE <dbl>, SERIAL <lgl>, REF <lgl>, QUESTNNR <chr>, MODE <chr>,
## #   PE01_01 <dbl>, PE02 <dbl>, PE03 <dbl>, PE04 <dbl>, PE05 <dbl>,
## #   PE06 <dbl>, PE07_01 <chr>, PE08 <dbl>, PE08_06 <chr>, PE09 <dbl>,
## #   MA01_01 <dbl>, MA01_02 <dbl>, MA01_03 <dbl>, MA01_04 <dbl>,
## #   MA01_05 <dbl>, MA01_07 <dbl>, MA01_08 <dbl>, MA01_09 <dbl>,
## #   MA01_10 <dbl>, MA01_12 <dbl>, MA01_13 <dbl>, MA01_14 <dbl>,
…
There is none with ZERO variance. Good.

Check cases with small variance:

d2 %>% 
  filter(mindfulness_sd < .8) %>%  # arbitrary value
  select(contains("MA01"))

## # A tibble: 27 x 15
##    MA01_01 MA01_02 MA01_03 MA01_04 MA01_05 MA01_07 MA01_08 MA01_09 MA01_10
##      <dbl>   <dbl>   <dbl>   <dbl>   <dbl>   <dbl>   <dbl>   <dbl>   <dbl>
##  1       4       4       4       4       3       5       5       5       4
##  2       3       1       1       1       1       3       2       2       1
##  3       1       1       2       3       2       2       2       2       2
##  4       3       3       2       4       4       4       3       3       3
##  5       4       2       3       4       3       2       3       3       3
##  6       2       3       3       3       4       4       3       4       3
##  7       4       4       5       4       5       6       5       5       5
##  8       3       3       4       3       5       5       5       4       4
##  9       3       2       2       3       4       3       4       4       3
## 10       5       4       4       6       5       5       6       5       5
## #  with 17 more rows, and 6 more variables: MA01_12 <dbl>, MA01_13 <dbl>,
## #   MA01_14 <dbl>, MA01_15 <dbl>, MA01_16 <dbl>, MA01_17 <dbl>
Looks ok.

Test for suspicous RT (level 1)

d_long <- rawdata_long3

Check for too quick to be true (< 300ms)

Lets say a flip below 300 ms is suspicious, ie., indicative of low data quality. Lets look for those rt values.

d_long %>% 
  select(id, type, mindfulness_training, rt) %>% 
  filter(rt < 300)

## # A tibble: 134 x 4
##       id type  mindfulness_training    rt
##    <dbl> <chr>                <dbl> <dbl>
##  1     1 flip                     0   231
##  2     1 flip                     0   221
##  3     1 flip                     0   180
##  4     1 flip                     0   203
##  5     1 flip                     0   195
##  6     1 flip                     0   261
##  7     1 flip                     0   213
##  8     1 flip                     0   212
##  9     1 flip                     0   209
## 10     1 flip                     0   217
## #  with 124 more rows
…
Check whether first (few) trials of each block should be disregared

Maybe the (few) first trials on each block should not be counted, as folks need to get into the exercise in the first place. So lets check whether the problems occur at the beginning of the blocks.

For that, we need an ID for each rt, ie., we need to indicate whether it was the first, second  trial of this person in this block.

d_long2 <- d_long %>% 
  group_by(id, type) %>% 
  mutate(id_trial = row_number()) %>% 
  select(id, type, id_trial, everything()) %>% 
  ungroup()

d_long2

## # A tibble: 20,139 x 59
##       id type  id_trial  CASE SERIAL REF   QUESTNNR MODE 
##    <dbl> <chr>    <int> <dbl> <lgl>  <lgl> <chr>    <chr>
##  1     1 flip         1   194 NA     NA    base     inte
##  2     1 flip         2   194 NA     NA    base     inte
##  3     1 flip         3   194 NA     NA    base     inte
##  4     1 flip         4   194 NA     NA    base     inte
##  5     1 flip         5   194 NA     NA    base     inte
##  6     1 flip         6   194 NA     NA    base     inte
##  7     1 flip         7   194 NA     NA    base     inte
##  8     1 flip         8   194 NA     NA    base     inte
##  9     1 flip         9   194 NA     NA    base     inte
## 10     1 flip        10   194 NA     NA    base     inte
## #  with 20,129 more rows, and 51 more variables: STARTED <dttm>,
## #   PE01_01 <dbl>, PE02 <dbl>, PE03 <dbl>, PE04 <dbl>, PE05 <dbl>,
## #   PE06 <dbl>, PE07_01 <chr>, PE08 <dbl>, PE08_06 <chr>, PE09 <dbl>,
## #   MA01_01 <dbl>, MA01_02 <dbl>, MA01_03 <dbl>, MA01_04 <dbl>,
## #   MA01_05 <dbl>, MA01_07 <dbl>, MA01_08 <dbl>, MA01_09 <dbl>,
## #   MA01_10 <dbl>, MA01_12 <dbl>, MA01_13 <dbl>, MA01_14 <dbl>,
## #   MA01_15 <dbl>, MA01_16 <dbl>, MA01_17 <dbl>, NW03_01 <chr>,
## #   NW04_01 <chr>, TIME001 <dbl>, TIME002 <dbl>, TIME003 <dbl>,
## #   TIME004 <dbl>, TIME005 <dbl>, TIME006 <dbl>, TIME007 <dbl>,
…
d_long2 <- d_long2 %>% 
  group_by(id) %>% 
  mutate(trials_pos_group = case_when(
    id_trial == 1 ~ "first",
    id_trial == 2 ~ "second",
    id_trial == max(id_trial) ~ "last",
    TRUE ~ "middle"
  )) %>% 
  select(id, type, id_trial, trials_pos_group, everything()) %>% 
  ungroup()

d_long2

## # A tibble: 20,139 x 60
##       id type  id_trial trials_pos_group  CASE SERIAL REF   QUESTNNR MODE 
##    <dbl> <chr>    <int> <chr>            <dbl> <lgl>  <lgl> <chr>    <chr>
##  1     1 flip         1 first              194 NA     NA    base     inte
##  2     1 flip         2 second             194 NA     NA    base     inte
##  3     1 flip         3 middle             194 NA     NA    base     inte
##  4     1 flip         4 middle             194 NA     NA    base     inte
##  5     1 flip         5 middle             194 NA     NA    base     inte
##  6     1 flip         6 middle             194 NA     NA    base     inte
##  7     1 flip         7 middle             194 NA     NA    base     inte
##  8     1 flip         8 middle             194 NA     NA    base     inte
##  9     1 flip         9 middle             194 NA     NA    base     inte
## 10     1 flip        10 middle             194 NA     NA    base     inte
## #  with 20,129 more rows, and 51 more variables: STARTED <dttm>,
## #   PE01_01 <dbl>, PE02 <dbl>, PE03 <dbl>, PE04 <dbl>, PE05 <dbl>,
## #   PE06 <dbl>, PE07_01 <chr>, PE08 <dbl>, PE08_06 <chr>, PE09 <dbl>,
## #   MA01_01 <dbl>, MA01_02 <dbl>, MA01_03 <dbl>, MA01_04 <dbl>,
## #   MA01_05 <dbl>, MA01_07 <dbl>, MA01_08 <dbl>, MA01_09 <dbl>,
## #   MA01_10 <dbl>, MA01_12 <dbl>, MA01_13 <dbl>, MA01_14 <dbl>,
## #   MA01_15 <dbl>, MA01_16 <dbl>, MA01_17 <dbl>, NW03_01 <chr>,
## #   NW04_01 <chr>, TIME001 <dbl>, TIME002 <dbl>, TIME003 <dbl>,
## #   TIME004 <dbl>, TIME005 <dbl>, TIME006 <dbl>, TIME007 <dbl>,
…
Add information about suspectibility to main data frames

long data frame

d_long3 <- d_long3 %>% 
  full_join(d_suspects) %>% 
  select(id, is_suspicious_person, everything())

## Joining, by = "id"

d_long3

## # A tibble: 20,139 x 62
##       id is_suspicious_p type  id_trial trials_pos_group  CASE SERIAL
##    <dbl>            <dbl> <chr>    <int> <fct>            <dbl> <lgl> 
##  1     1                1 flip         1 first              194 NA    
##  2     1                1 flip         2 second             194 NA    
##  3     1                1 flip         3 middle             194 NA    
##  4     1                1 flip         4 middle             194 NA    
##  5     1                1 flip         5 middle             194 NA    
##  6     1                1 flip         6 middle             194 NA    
##  7     1                1 flip         7 middle             194 NA    
##  8     1                1 flip         8 middle             194 NA    
##  9     1                1 flip         9 middle             194 NA    
## 10     1                1 flip        10 middle             194 NA    
## #  with 20,129 more rows, and 55 more variables: REF <lgl>,
## #   QUESTNNR <chr>, MODE <chr>, STARTED <dttm>, PE01_01 <dbl>, PE02 <dbl>,
## #   PE03 <dbl>, PE04 <dbl>, PE05 <dbl>, PE06 <dbl>, PE07_01 <chr>,
## #   PE08 <dbl>, PE08_06 <chr>, PE09 <dbl>, MA01_01 <dbl>, MA01_02 <dbl>,
## #   MA01_03 <dbl>, MA01_04 <dbl>, MA01_05 <dbl>, MA01_07 <dbl>,
## #   MA01_08 <dbl>, MA01_09 <dbl>, MA01_10 <dbl>, MA01_12 <dbl>,
## #   MA01_13 <dbl>, MA01_14 <dbl>, MA01_15 <dbl>, MA01_16 <dbl>,
## #   MA01_17 <dbl>, NW03_01 <chr>, NW04_01 <chr>, TIME001 <dbl>,
## #   TIME002 <dbl>, TIME003 <dbl>, TIME004 <dbl>, TIME005 <dbl>,
…
Set suspicious RT to NA

One further way to deal with suspicious data is to set it to NA. Lets try that.

d_long4 <- d_long3 %>% 
  ungroup() %>% 
  mutate(rt_not_suspect = case_when(
    is_suspicious_trial != 0  ~ NA_real_,
    TRUE ~ rt
  )) %>% 
  select(id, rt_not_suspect, everything())

d_long4

## # A tibble: 20,139 x 63
##       id rt_not_suspect is_suspicious_p type  id_trial trials_pos_group
##    <dbl>          <dbl>            <dbl> <chr>    <int> <fct>           
##  1     1           7050                1 flip         1 first           
##  2     1           4857                1 flip         2 second          
##  3     1            776                1 flip         3 middle          
##  4     1           1185                1 flip         4 middle          
##  5     1             NA                1 flip         5 middle          
##  6     1             NA                1 flip         6 middle          
##  7     1             NA                1 flip         7 middle          
##  8     1             NA                1 flip         8 middle          
##  9     1            387                1 flip         9 middle          
## 10     1             NA                1 flip        10 middle          
## #  with 20,129 more rows, and 57 more variables: CASE <dbl>,
## #   SERIAL <lgl>, REF <lgl>, QUESTNNR <chr>, MODE <chr>, STARTED <dttm>,
## #   PE01_01 <dbl>, PE02 <dbl>, PE03 <dbl>, PE04 <dbl>, PE05 <dbl>,
## #   PE06 <dbl>, PE07_01 <chr>, PE08 <dbl>, PE08_06 <chr>, PE09 <dbl>,
## #   MA01_01 <dbl>, MA01_02 <dbl>, MA01_03 <dbl>, MA01_04 <dbl>,
## #   MA01_05 <dbl>, MA01_07 <dbl>, MA01_08 <dbl>, MA01_09 <dbl>,
## #   MA01_10 <dbl>, MA01_12 <dbl>, MA01_13 <dbl>, MA01_14 <dbl>,
## #   MA01_15 <dbl>, MA01_16 <dbl>, MA01_17 <dbl>, NW03_01 <chr>,
## #   NW04_01 <chr>, TIME001 <dbl>, TIME002 <dbl>, TIME003 <dbl>,
…
Add trials count summary to main person level data frame

By the way, lets add the information on the number of trials (per person, per block) to the main person-level data frame.

trials_count <- d_long2 %>% 
  group_by(id, type) %>% 
  summarise(trials_count = n()) %>% 
  spread(key = type, value = trials_count) %>% 
  rename(trials_count_flip = flip,
         trials_count_hold = hold)
  
trials_count

## # A tibble: 143 x 3
## # Groups:   id [143]
##       id trials_count_flip trials_count_hold
##    <dbl>             <int>             <int>
##  1     1                53                15
##  2     2               150                26
##  3     3               115                23
##  4     4               136                35
##  5     5                 3                 1
##  6     6               107                45
##  7     7               101                30
##  8     8                28                26
##  9     9               101                57
## 10    10                88                47
## #  with 133 more rows

Join to main l2 data frame:

d3 <- d2 %>% 
  full_join(trials_count) %>% 
  select(id, contains("trials_count"), everything())

## Joining, by = "id"

d3

## # A tibble: 143 x 67
##       id trials_count_fl trials_count_ho rt_md_hold rt_mean_hold
##    <dbl>            <int>            <int>      <dbl>        <dbl>
##  1     1               53               15      8835        10047.
##  2     2              150               26      5690.        6756.
##  3     3              115               23      7787         7187.
##  4     4              136               35      5247         5106.
##  5     5                3                1      1792         1792 
##  6     6              107               45      3119         3968.
##  7     7              101               30      3694.        5753.
##  8     8               28               26      4342.        6872.
##  9     9              101               57      2581         3119.
## 10    10               88               47      2814         3765.
## #  with 133 more rows, and 62 more variables: rt_iqr_hold <dbl>,
## #   rt_sd_hold <dbl>, rt_md_flip <dbl>, rt_mean_flip <dbl>,
## #   rt_iqr_flip <dbl>, rt_sd_flip <dbl>, mindfulness_score <dbl>,
## #   mindfulness_training <dbl>, mindfulness_sd <dbl>, STARTED <dttm>,
## #   CASE <dbl>, SERIAL <lgl>, REF <lgl>, QUESTNNR <chr>, MODE <chr>,
## #   PE01_01 <dbl>, PE02 <dbl>, PE03 <dbl>, PE04 <dbl>, PE05 <dbl>,
## #   PE06 <dbl>, PE07_01 <chr>, PE08 <dbl>, PE08_06 <chr>, PE09 <dbl>,
## #   MA01_01 <dbl>, MA01_02 <dbl>, MA01_03 <dbl>, MA01_04 <dbl>,
## #   MA01_05 <dbl>, MA01_07 <dbl>, MA01_08 <dbl>, MA01_09 <dbl>,
…
